[Mon Apr  3 05:36:36 UTC 2017] 0 of 4 tests passed
[Mon Apr  3 05:47:26 UTC 2017] 3 of 4 tests passed
[Mon Apr  3 05:54:40 UTC 2017] 4 of 4 tests passed
[Mon Apr  3 06:01:07 UTC 2017] 4 of 4 tests passed
[Fri Apr  7 21:54:33 UTC 2017] 4 of 4 tests passed
[Fri Apr  7 22:50:20 UTC 2017] 8 of 8 tests passed
